1032,1549,1574,1907,1924,1926,1945,1949,1991,1994,2084,2108,2162,2179,2203,2205,2207,2247,2322,2364,2374,2424,2429,2436,2437,2523,2554,2590,2753,2755,2785,2787,2790,2844,2978,2986,3062,3157,3179,3247,3260,3296,3317,3333,3488,3501,3588,3634,3635,3735,3827,3833,3908,3923,3937,4118,4122,4191,4265,4306,4381,4549,4788,4832,5217,5221,5335,5604,5792,6075,8414,8464,8470,8488,8492,8540,8572,8572,8576,8580,8590,8592,8604,8610,8612,8616,8620,8622,8624,8628,8632,8636,8656,8660,8690,8704,8708,8720,8732,8748
1599,1886,1924,1930,1940,1950,2120,2148,2154,2160,2172,2192,2210,2316,2318,2364,2434,2458,2508,2598,2641,2656,2683,2693,2704,2718,2843,2846,2968,2985,3031,3137,3199,3307,3368,3416,3441,3453,3464,3489,3613,3877,4034,4089,4166,4238,4462,4530,4530,4940,4968,5528,5907,6043,6236,6353,6847,8460,8473,8484,8484,8488,8528,8538,8540,8550,8566,8572,8578,8580,8581,8586,8588,8592,8596,8596,8604,8616,8632,8636,8640,8650,8652,8654,8656,8656,8660,8660,8672,8672,8690,8704,8708,8708,8720,8732,8734,8748,8748,8765
1132,1397,1434,1482,1536,1599,1726,1887,1925,1960,2049,2156,2169,2241,2274,2292,2338,2382,2398,2429,2443,2490,2520,2561,2701,2731,2742,2857,2967,3032,3058,3084,3099,3137,3175,3182,3244,3276,3296,3322,3365,3399,3436,3614,3637,3649,3658,3685,3872,3888,4075,4178,4399,4492,4552,4651,4653,4866,4962,5115,5762,5851,5990,6079,6224,7802,8450,8466,8484,8514,8526,8532,8544,8548,8554,8558,8566,8566,8576,8582,8592,8626,8644,8666,8668,8690,8692,8704,8704,8708,8708,8720,8732,8734,8742,8748,8748,8765,8786,8881
1604,1759,1780,1837,1840,1882,2016,2050,2099,2104,2123,2132,2242,2268,2290,2315,2317,2371,2418,2450,2455,2460,2484,2523,2543,2576,2604,2646,2685,2695,2723,2867,2874,2877,2970,2981,3004,3076,3101,3103,3168,3232,3240,3277,3367,3499,3622,3685,3879,3909,3929,4044,4133,4136,4265,4307,4514,4623,4682,4754,4790,5098,5263,5561,6548,6950,6974,7805,7948,8474,8508,8512,8540,8544,8548,8550,8552,8564,8584,8588,8592,8592,8596,8610,8674,8676,8682,8692,8698,8708,8720,8732,8734,8742,8748,8748,8765,8786,8796,8881
1591,1608,1793,1968,1971,1996,2009,2148,2182,2196,2227,2252,2285,2325,2395,2443,2451,2485,2527,2552,2555,2720,2734,2761,2813,2911,2912,2935,2941,2946,3012,3066,3089,3097,3374,3394,3459,3529,3634,3635,3682,3702,3771,3778,3803,3804,3820,3862,3977,4142,4176,4215,4312,4839,4966,5349,5535,5645,5701,5876,6024,6117,6269,6522,6981,8484,8496,8496,8508,8528,8528,8528,8542,8556,8568,8616,8628,8632,8634,8640,8648,8652,8692,8696,8704,8708,8714,8716,8720,8732,8732,8734,8742,8748,8748,8765,8786,8796,8881,9007
1254,1490,1729,1737,1742,1858,1892,1896,2069,2090,2097,2172,2183,2428,2477,2614,2653,2814,2851,2854,2877,2909,2968,3120,3139,3145,3149,3159,3169,3270,3319,3351,3406,3407,3446,3494,3588,3640,3728,3818,3834,3884,3939,3980,4047,4121,4291,4609,4692,4957,5422,5810,5986,6002,6559,8464,8490,8508,8524,8534,8536,8540,8548,8552,8558,8560,8564,8574,8584,8588,8600,8608,8616,8620,8622,8624,8634,8636,8644,8652,8664,8668,8672,8678,8684,8702,8726,8732,8734,8742,8744,8746,8748,8748,8765,8786,8796,8881,9007,9141
1289,1567,1671,1828,1960,1962,2092,2112,2157,2189,2235,2262,2313,2334,2340,2356,2406,2493,2515,2548,2565,2607,2656,2720,2756,2760,2785,2795,2828,2869,2913,2920,2928,3002,3019,3023,3055,3071,3244,3281,3411,3431,3559,3612,3727,3810,3885,4004,4052,4177,4223,4252,4331,4361,4418,4600,4868,6344,6366,7108,7258,7495,8456,8492,8496,8496,8506,8522,8524,8564,8566,8570,8584,8584,8588,8596,8596,8616,8616,8622,8622,8624,8634,8658,8664,8668,8688,8720,8724,8744,8746,8748,8748,8765,8786,8796,8810,8881,9007,9141
1305,1742,1743,1804,1804,1851,1860,2213,2218,2253,2256,2265,2272,2345,2345,2352,2352,2457,2633,2672,2691,2700,2761,2799,2821,2853,2878,2912,2978,2993,2994,3002,3015,3040,3054,3058,3091,3157,3292,3316,3509,3516,3637,3675,3740,3830,3852,4056,4087,4165,4170,4276,4299,4551,4791,4927,5109,5531,5567,6278,6707,8412,8420,8448,8524,8528,8528,8536,8562,8568,8576,8580,8580,8584,8586,8586,8588,8596,8600,8604,8606,8622,8624,8648,8656,8668,8672,8684,8698,8746,8748,8748,8756,8765,8786,8796,8810,8881,9007,9141
1644,1859,1924,2007,2108,2112,2147,2194,2211,2227,2304,2314,2352,2615,2642,2733,2752,2764,2771,2789,3044,3082,3086,3140,3149,3245,3330,3432,3438,3502,3518,3533,3535,3547,3607,3654,3803,3830,3856,3952,4000,4199,4213,4328,4406,4489,4587,4591,4681,4727,4731,5126,5127,5665,5674,6146,7178,8372,8452,8456,8508,8546,8564,8568,8578,8580,8580,8584,8584,8586,8588,8592,8616,8616,8628,8632,8632,8634,8654,8656,8660,8664,8680,8680,8688,8692,8711,8736,8744,8748,8748,8756,8757,8765,8786,8796,8810,8881,9007,9141
1165,1426,1636,1788,1804,1988,1999,2074,2095,2179,2232,2296,2332,2356,2493,2525,2535,2545,2609,2612,2701,2710,2750,2752,2773,2872,2914,2922,3093,3233,3234,3404,3430,3510,3534,3619,3704,3772,3781,3799,3874,3891,3947,3975,3978,4179,4317,4545,4620,4683,4830,4840,4851,4951,5120,5472,5568,6456,8508,8516,8519,8520,8538,8548,8554,8564,8564,8571,8576,8578,8580,8580,8596,8602,8608,8618,8620,8628,8632,8640,8660,8664,8664,8668,8676,8684,8708,8712,8732,8740,8748,8756,8757,8765,8786,8796,8810,8881,9007,9141
1544,1620,1654,1681,1804,1848,1910,1918,1922,1932,1938,1965,1971,2005,2040,2161,2255,2282,2333,2348,2383,2399,2412,2480,2494,2649,2752,2812,2846,2847,2854,2884,2893,2968,3075,3164,3363,3472,3587,3616,3617,3705,3737,3800,3812,4476,4551,4637,4820,4963,4988,5075,5308,5892,5945,6067,6087,6301,6524,6795,8456,8496,8512,8514,8524,8536,8540,8556,8556,8572,8580,8580,8582,8594,8600,8620,8624,8628,8628,8650,8656,8664,8680,8688,8696,8716,8728,8748,8756,8757,8765,8776,8784,8786,8796,8810,8838,8881,9007,9141
1364,1407,1786,1924,1988,2218,2319,2391,2410,2418,2427,2453,2550,2645,2660,2740,2773,2783,2805,2976,3095,3098,3132,3142,3209,3253,3323,3428,3494,3610,3691,3846,3853,3924,4168,4352,4428,4477,4637,4921,4993,5103,5134,5135,5256,5259,5328,5638,5813,6654,6729,7521,7757,8456,8464,8496,8520,8520,8524,8528,8532,8532,8538,8546,8552,8558,8566,8576,8584,8592,8597,8600,8604,8608,8628,8644,8644,8648,8656,8668,8670,8674,8690,8726,8734,8752,8765,8772,8776,8784,8786,8791,8796,8807,8810,8838,8881,8980,9007,9141
1532,1729,1961,2008,2308,2377,2443,2465,2499,2502,2511,2513,2529,2533,2602,2639,2697,2753,2761,2764,2826,2826,2849,2859,3010,3013,3076,3095,3104,3113,3168,3170,3212,3252,3302,3341,3408,3436,3554,3576,3610,3615,3622,3665,3813,3860,3860,3909,3956,3958,4319,4379,4398,4417,4517,4524,4634,4750,4840,4876,4882,5265,5318,5371,5659,6022,6336,7285,7581,8484,8488,8528,8544,8558,8566,8568,8574,8580,8592,8618,8620,8634,8636,8640,8668,8678,8692,8692,8696,8786,8791,8796,8807,8810,8819,8838,8881,8980,9007,9141
1348,1503,1538,1669,1671,1696,1726,1728,1866,1907,1969,1999,2039,2053,2137,2188,2194,2238,2285,2375,2403,2556,2571,2575,2583,2589,2620,2636,2743,2756,2817,2832,2837,2974,2975,3003,3041,3100,3121,3132,3172,3183,3238,3395,3440,3465,3480,3630,3688,3689,3830,3870,4093,4171,4192,4317,5091,5432,5493,5519,5561,5613,6075,6367,6674,7210,8464,8476,8488,8502,8506,8512,8532,8534,8536,8546,8556,8564,8568,8572,8598,8616,8616,8618,8620,8636,8660,8664,8694,8758,8791,8796,8807,8810,8819,8838,8881,8980,9007,9141
1414,1435,1499,1826,2060,2111,2173,2268,2309,2359,2391,2396,2440,2509,2544,2548,2566,2607,2682,2852,2903,3020,3067,3074,3109,3139,3149,3269,3289,3304,3311,3471,3515,3629,3630,3773,3961,3964,3984,4005,4016,4039,4352,4445,4575,4805,4824,4975,5115,5913,6067,6434,8474,8504,8510,8516,8532,8544,8548,8548,8552,8560,8562,8572,8576,8580,8588,8592,8596,8600,8600,8612,8612,8620,8620,8626,8628,8628,8632,8640,8646,8654,8668,8672,8676,8676,8680,8688,8704,8709,8791,8796,8807,8810,8819,8838,8881,8980,9007,9141
1172,1225,1653,1791,1869,1880,1942,2058,2075,2264,2314,2345,2393,2486,2501,2501,2537,2643,2653,2678,2702,2728,2732,2748,2768,2949,2953,2955,3002,3023,3039,3066,3178,3207,3218,3230,3235,3440,3460,3530,3568,3655,3664,3743,3789,3804,3821,3826,3882,3938,4262,4349,4376,4460,4539,4545,4580,5012,6240,6264,6269,6402,6952,8496,8512,8522,8534,8544,8564,8564,8568,8572,8576,8576,8580,8606,8612,8616,8620,8622,8628,8646,8676,8678,8688,8688,8692,8698,8711,8722,8791,8796,8807,8810,8819,8838,8881,8980,9007,9141
1073,1551,1616,1623,1878,1881,1885,1937,2008,2021,2055,2065,2233,2245,2368,2408,2410,2500,2545,2564,2635,2677,2732,2746,2797,2804,2839,3009,3051,3081,3176,3232,3263,3275,3365,3368,3440,3642,3729,3741,3836,3941,4033,4038,4123,4318,4388,4391,4443,4489,4690,4818,5121,5219,5353,5690,6987,7266,7587,7762,8498,8508,8522,8542,8544,8560,8568,8572,8576,8580,8582,8588,8590,8596,8600,8600,8614,8616,8618,8624,8644,8648,8656,8658,8660,8662,8666,8684,8752,8760,8791,8796,8807,8810,8819,8838,8881,8980,9007,9141
1404,1664,1803,1831,1832,1851,2067,2103,2157,2217,2235,2257,2276,2338,2342,2473,2551,2742,2761,2797,2815,2827,2830,2881,2948,2971,2987,3001,3004,3025,3204,3249,3335,3362,3422,3506,3534,3778,3968,3987,4013,4048,4229,4402,4421,4563,4577,4675,4719,4931,4989,4995,5045,5350,6830,7657,7716,8424,8468,8488,8492,8510,8522,8532,8548,8548,8552,8562,8576,8582,8586,8594,8598,8600,8600,8604,8616,8620,8622,8624,8642,8644,8646,8652,8654,8654,8672,8712,8714,8730,8791,8796,8807,8810,8819,8838,8881,8980,9007,9141
1416,1522,1615,1623,1624,1787,1802,1807,1811,1822,1998,2086,2152,2189,2258,2293,2316,2400,2463,2466,2499,2518,2547,2561,2659,2681,2684,2752,2939,2996,3012,3025,3099,3124,3175,3222,3360,3470,3519,3579,3592,3600,3665,3675,3688,3691,3696,3778,3807,3813,3845,3910,4098,4153,4363,4747,4769,4856,5264,5319,5406,5847,6001,6233,6431,6670,6798,7079,8452,8484,8518,8540,8548,8560,8574,8582,8588,8616,8620,8622,8624,8642,8656,8659,8688,8708,8708,8722,8726,8748,8791,8796,8807,8810,8819,8838,8881,8980,9007,9141
1382,1717,1925,1969,2001,2014,2024,2076,2077,2188,2195,2229,2258,2336,2339,2379,2381,2384,2440,2447,2454,2470,2520,2577,2580,2584,2688,2724,2751,2759,2770,2830,2833,2902,2916,2917,2960,3012,3031,3046,3068,3148,3223,3251,3276,3422,3433,3472,3510,3670,4044,4150,4191,4328,4333,4424,4451,4562,4784,5234,5378,5756,5788,6528,8472,8480,8480,8486,8494,8524,8528,8538,8564,8564,8570,8572,8594,8614,8620,8632,8636,8664,8676,8688,8692,8704,8708,8710,8720,8790,8791,8796,8807,8810,8819,8838,8881,8980,9007,9141
