1250,1353,1400,1891,1893,2126,2258,2278,2279,2360,2362,2394,2585,2592,2615,2637,2677,2708,2731,2801,2802,2834,2853,2865,2930,2962,3098,3098,3107,3112,3163,3206,3268,3270,3320,3337,3451,3587,3589,3627,3658,3697,3762,3831,3870,3909,4156,4174,4252,4255,4281,4345,4361,4576,4659,5162,5442,5658,5732,5812,7203,7677,7897,8358,8740,16492,16492,16496,16516,16518,16532,16540,16544,16544,16546,16568,16578,16584,16588,16588,16596,16602,16606,16616,16620,16620,16620,16620,16624,16630,16640,16642,16652,16664,16668,16684,16692,16718,16732,16858
1642,1666,1726,1750,1885,1918,1976,1988,2003,2047,2088,2095,2224,2278,2370,2381,2515,2551,2568,2568,2616,2632,2698,2811,2861,2873,2882,2884,2990,3066,3129,3184,3194,3217,3287,3316,3380,3398,3405,3421,3490,3574,3697,3767,3777,3796,3806,3888,3915,3974,3989,4038,4045,4087,4139,4150,4215,4308,4335,4459,4488,4644,4776,4798,4857,6077,6298,7658,16500,16550,16550,16550,16570,16580,16580,16584,16598,16618,16622,16624,16631,16632,16640,16642,16644,16650,16652,16658,16660,16664,16668,16668,16684,16686,16692,16704,16718,16732,16760,16858
1491,1722,1861,1962,2031,2146,2300,2339,2379,2380,2444,2484,2596,2602,2623,2668,2693,2750,2756,2904,2926,2941,2965,3093,3252,3281,3289,3318,3331,3358,3432,3439,3612,3690,3705,3708,3728,3745,3792,3811,3816,4007,4113,4152,4249,4384,4431,4489,4609,4770,4876,4918,5069,5229,5244,5290,5451,5573,5586,5724,5894,5955,8176,16526,16536,16552,16552,16554,16556,16558,16560,16568,16568,16580,16580,16586,16592,16592,16594,16604,16612,16612,16616,16628,16628,16632,16632,16644,16662,16668,16668,16684,16686,16692,16704,16718,16732,16760,16804,16858
1535,1696,1766,1940,1955,1979,2262,2280,2353,2363,2472,2473,2629,2676,2709,2748,2777,2795,2875,3067,3139,3188,3194,3233,3246,3250,3276,3282,3334,3364,3439,3564,3588,3594,3630,3735,3755,3759,3839,4066,4136,4152,4181,4229,4254,4293,4325,4346,4455,4519,4566,4586,4719,4740,4789,4813,4956,5028,5234,5753,5979,7355,7393,7846,8415,16460,16516,16524,16528,16532,16550,16560,16568,16568,16578,16588,16596,16600,16616,16618,16638,16640,16668,16668,16680,16680,16684,16684,16686,16690,16692,16696,16704,16718,16718,16732,16754,16760,16804,16858
1619,1752,1795,1893,1941,1978,2260,2286,2357,2379,2457,2484,2498,2564,2668,2689,2713,2774,2809,2887,2943,2988,3091,3117,3125,3144,3373,3420,3423,3463,3499,3500,3548,3595,3670,3700,3744,3778,3831,3845,3849,4046,4126,4195,4214,4344,4440,4456,4707,4916,5082,5089,5177,5231,5530,5701,5872,6873,7193,7288,16452,16472,16500,16520,16520,16526,16542,16542,16542,16548,16556,16568,16572,16580,16582,16584,16590,16592,16592,16608,16608,16612,16634,16636,16654,16670,16678,16692,16692,16696,16704,16710,16718,16718,16732,16754,16760,16800,16804,16858
1395,1613,1680,1761,1789,1827,1849,1868,1986,2058,2101,2119,2240,2300,2323,2325,2357,2370,2393,2405,2476,2494,2503,2540,2543,2694,2749,2755,2781,2785,2857,2861,2864,2871,2874,3044,3056,3188,3245,3336,3498,3510,3512,3592,3625,3707,3711,3742,3831,3941,3958,4045,4089,4127,4145,4219,4290,4361,4406,4783,4786,4955,5020,5184,5247,5411,5708,5814,6633,7088,13763,16534,16560,16576,16578,16584,16584,16584,16588,16588,16624,16624,16628,16628,16640,16644,16644,16654,16664,16696,16704,16710,16718,16718,16732,16754,16760,16800,16804,16858
1409,1485,1783,1788,1951,1974,2005,2007,2037,2058,2103,2188,2356,2360,2364,2372,2386,2424,2454,2458,2507,2514,2687,2712,2718,2786,2809,2877,2928,2988,2988,3035,3055,3114,3117,3302,3312,3315,3326,3358,3374,3472,3473,3520,3618,3673,3777,3868,3915,3928,3931,4046,4301,4334,4366,4401,4532,4656,4724,4759,4848,4924,5121,5145,5949,6030,6068,6171,6208,6935,7023,7555,8493,9089,16474,16520,16552,16564,16568,16584,16584,16588,16604,16604,16608,16628,16664,16704,16710,16710,16718,16718,16732,16754,16760,16764,16776,16800,16804,16858
1386,1650,1675,1771,1778,1821,1822,1852,1884,2016,2050,2131,2162,2210,2306,2353,2375,2433,2464,2597,2624,2639,2680,2702,2734,2748,2782,2844,2852,2860,2901,2931,2957,2977,3023,3116,3117,3163,3173,3323,3387,3423,3425,3544,3603,3623,3694,3709,3942,3943,3943,3946,4072,4239,4333,4823,4949,5208,5217,5572,5620,6341,6453,6563,7026,7439,16450,16480,16488,16494,16516,16520,16532,16556,16566,16580,16608,16610,16616,16624,16624,16624,16630,16636,16638,16656,16660,16664,16696,16706,16718,16718,16732,16754,16760,16764,16776,16800,16804,16858
1467,1585,1662,1668,1800,1930,2140,2148,2228,2308,2363,2397,2452,2475,2619,2623,2648,2931,2947,2958,3145,3261,3377,3428,3441,3483,3490,3545,3621,3633,3731,3801,3802,3843,3864,4006,4013,4150,4206,4452,4467,4686,4777,4877,4999,5148,5156,5354,5433,5625,5670,6965,16484,16492,16492,16500,16520,16520,16532,16532,16536,16544,16552,16552,16556,16564,16568,16570,16588,16604,16604,16612,16612,16616,16616,16620,16622,16628,16634,16640,16642,16644,16650,16662,16670,16704,16718,16718,16732,16732,16744,16754,16754,16756,16760,16764,16776,16800,16804,16858
1609,1681,1689,1730,1833,1927,1933,1956,1973,2017,2049,2261,2316,2322,2409,2418,2479,2532,2561,2682,2703,2724,2748,2838,2874,2901,2919,2943,2998,3111,3227,3246,3250,3372,3385,3475,3483,3653,3738,3752,4092,4106,4234,4313,4400,4492,4525,4584,4589,4697,4804,4881,4963,5062,5355,5405,5546,5565,5810,5951,6022,6098,6680,7769,16452,16486,16496,16538,16544,16548,16562,16564,16568,16578,16586,16588,16588,16592,16594,16596,16600,16610,16628,16632,16634,16634,16660,16674,16704,16712,16744,16754,16754,16756,16760,16764,16776,16800,16804,16858
1506,1712,1721,1742,1756,1793,1850,1857,2023,2155,2221,2273,2289,2393,2445,2476,2681,2733,2733,2742,2743,2750,2767,2904,2950,3039,3061,3074,3124,3134,3158,3236,3253,3363,3368,3378,3426,3560,3695,3813,3900,4159,4170,4192,4285,4325,4348,4554,4662,4684,4821,4874,4920,4983,5053,5089,5324,5728,5907,6107,6834,7330,7612,9169,13701,16432,16462,16500,16512,16528,16532,16540,16542,16548,16558,16568,16574,16576,16580,16580,16606,16632,16636,16648,16648,16668,16680,16724,16744,16754,16754,16756,16760,16760,16764,16776,16796,16800,16804,16858
1239,1501,1738,1791,1819,1907,2008,2091,2116,2275,2309,2336,2392,2400,2479,2567,2568,2636,2649,2695,2755,2838,2930,2943,2945,2982,3088,3277,3362,3369,3422,3446,3568,3776,3808,3836,3919,3936,4043,4057,4117,4136,4211,4545,4556,4721,4889,4924,5329,5451,5494,5554,5892,6384,6503,6524,7203,16438,16470,16472,16512,16516,16532,16544,16548,16566,16572,16576,16592,16596,16608,16612,16620,16620,16620,16628,16628,16634,16636,16636,16640,16644,16652,16652,16666,16676,16684,16688,16698,16736,16754,16756,16760,16760,16764,16776,16796,16800,16804,16858
1113,1541,1638,1879,1921,1938,1988,1989,2075,2101,2169,2170,2211,2267,2272,2294,2326,2381,2430,2432,2573,2589,2599,2652,2718,2726,2786,2794,2807,2830,2835,2835,2880,3089,3117,3208,3322,3353,3372,3392,3399,3413,3965,3993,3999,4020,4178,4447,4694,4756,4788,4947,4974,5235,5353,5590,5618,5719,6088,6131,6178,6199,6601,7387,7566,7933,9808,16436,16460,16504,16544,16544,16564,16574,16574,16576,16586,16588,16600,16604,16604,16616,16624,16628,16634,16644,16658,16660,16672,16754,16756,16760,16760,16764,16764,16776,16796,16800,16804,16858
1636,1659,1666,1740,1852,1913,1932,1981,2015,2068,2072,2275,2320,2344,2373,2468,2494,2499,2526,2583,2603,2608,2641,2645,2686,2735,2741,2821,2844,2856,2921,2946,3042,3046,3057,3209,3274,3292,3376,3430,3431,3481,3493,3595,3601,3629,3637,3823,3836,3902,4031,4044,4291,4311,4349,4448,4651,4850,4897,4962,5058,5216,5416,5898,16434,16436,16436,16504,16520,16520,16540,16540,16544,16544,16548,16556,16560,16564,16564,16580,16596,16600,16612,16620,16628,16676,16708,16712,16732,16756,16760,16760,16760,16764,16764,16776,16796,16800,16804,16858
1527,1657,1752,1790,1856,1933,2000,2039,2109,2226,2300,2363,2420,2445,2455,2464,2472,2480,2512,2518,2554,2670,2679,2698,2714,2747,2793,2826,2827,2908,2915,2960,2969,3002,3048,3090,3169,3176,3214,3364,3405,3534,3587,3606,3641,3641,3798,3826,3934,4187,4204,4220,4313,4513,4515,4613,4656,4734,5229,5309,5343,5759,6166,7926,8071,16508,16512,16512,16518,16522,16528,16536,16544,16544,16544,16556,16568,16574,16580,16592,16600,16612,16616,16636,16650,16652,16680,16692,16700,16716,16760,16760,16760,16764,16764,16776,16796,16800,16804,16858
1542,1799,1907,1921,1968,2000,2038,2071,2095,2117,2199,2263,2316,2363,2518,2522,2539,2581,2584,2622,2819,2858,2889,2933,3023,3029,3034,3098,3103,3150,3170,3181,3186,3380,3386,3398,3454,3474,3517,3549,3639,3664,3738,3763,3896,3940,3951,4065,4091,4253,4339,4456,4546,4644,4654,4764,4771,4848,4865,4988,5067,5103,5329,6049,6155,6238,6384,7641,16424,16492,16532,16532,16562,16574,16576,16596,16604,16608,16612,16616,16626,16640,16652,16668,16680,16694,16702,16712,16728,16760,16760,16760,16764,16764,16770,16776,16796,16800,16804,16858
1350,1429,1603,1817,1821,1871,1932,1945,2026,2031,2043,2117,2131,2175,2288,2424,2513,2555,2556,2597,2602,2659,2669,2674,2960,3035,3060,3067,3085,3113,3192,3237,3558,3574,3593,3774,3868,3976,3995,4023,4087,4145,4176,4257,4276,4398,4493,4674,4689,4711,4887,5100,5256,5401,5514,6380,6897,9674,16466,16478,16492,16496,16508,16508,16512,16518,16524,16552,16554,16556,16560,16564,16566,16568,16584,16588,16588,16604,16608,16636,16638,16648,16648,16660,16678,16684,16694,16700,16720,16760,16760,16764,16764,16770,16776,16796,16800,16804,16832,16858
1669,1989,2008,2125,2129,2140,2289,2374,2453,2561,2596,2633,2657,2700,2739,2798,2827,2950,2963,2968,2979,3063,3159,3172,3225,3295,3359,3400,3469,3610,3628,3637,3668,3685,3708,3730,3858,3916,3952,4077,4141,4248,4252,4255,4505,4802,4860,4885,5051,5100,5360,5371,5668,6073,6085,6594,6917,16492,16502,16514,16528,16540,16560,16562,16562,16564,16566,16570,16572,16576,16586,16596,16598,16605,16614,16620,16620,16628,16640,16644,16648,16664,16676,16684,16684,16686,16692,16704,16728,16736,16760,16764,16764,16770,16776,16796,16800,16804,16832,16858
1703,1788,1903,1916,1969,2048,2246,2334,2352,2380,2433,2537,2549,2622,2646,2657,2667,2692,2709,2731,2755,2756,2813,2830,2844,2898,2915,3010,3048,3188,3198,3208,3232,3265,3270,3343,3383,3416,3431,3439,3490,3601,3625,3649,3907,3975,4128,4188,4241,4363,4546,4553,4754,4786,5040,5402,5557,5699,5967,6349,7179,8189,16492,16510,16516,16524,16540,16540,16546,16556,16568,16572,16576,16580,16592,16594,16600,16604,16606,16610,16618,16626,16668,16668,16670,16688,16692,16708,16712,16728,16760,16764,16764,16770,16776,16796,16800,16804,16832,16858
1683,1843,1883,1908,1913,1952,1959,1973,1991,1994,2041,2097,2200,2223,2291,2337,2348,2601,2651,2737,2781,2877,2910,2973,2988,3032,3088,3130,3180,3181,3211,3355,3363,3528,3612,3661,3698,3832,3845,3925,3943,4083,4196,4285,4433,4570,4831,4852,4883,5049,5141,5178,5336,5352,5433,5847,6230,7536,7909,16468,16476,16484,16484,16492,16512,16534,16534,16540,16542,16548,16554,16574,16596,16600,16600,16606,16616,16632,16636,16640,16648,16656,16662,16668,16672,16674,16688,16696,16700,16760,16764,16764,16770,16776,16796,16800,16804,16824,16832,16858
